G04 #@! TF.GenerationSoftware,KiCad,Pcbnew,(5.1.8)-1*
G04 #@! TF.CreationDate,2021-08-16T14:46:25+02:00*
G04 #@! TF.ProjectId,PT2065,50543230-3635-42e6-9b69-6361645f7063,rev?*
G04 #@! TF.SameCoordinates,Original*
G04 #@! TF.FileFunction,Copper,L2,Bot*
G04 #@! TF.FilePolarity,Positive*
%FSLAX46Y46*%
G04 Gerber Fmt 4.6, Leading zero omitted, Abs format (unit mm)*
G04 Created by KiCad (PCBNEW (5.1.8)-1) date 2021-08-16 14:46:25*
%MOMM*%
%LPD*%
G01*
G04 APERTURE LIST*
G04 #@! TA.AperFunction,ComponentPad*
%ADD10R,2.600000X2.600000*%
G04 #@! TD*
G04 #@! TA.AperFunction,ComponentPad*
%ADD11C,2.600000*%
G04 #@! TD*
G04 #@! TA.AperFunction,ComponentPad*
%ADD12O,2.700000X3.300000*%
G04 #@! TD*
G04 #@! TA.AperFunction,ComponentPad*
%ADD13C,8.600000*%
G04 #@! TD*
G04 #@! TA.AperFunction,ComponentPad*
%ADD14C,0.900000*%
G04 #@! TD*
G04 #@! TA.AperFunction,ViaPad*
%ADD15C,0.800000*%
G04 #@! TD*
G04 #@! TA.AperFunction,Conductor*
%ADD16C,0.400000*%
G04 #@! TD*
G04 #@! TA.AperFunction,Conductor*
%ADD17C,0.250000*%
G04 #@! TD*
G04 #@! TA.AperFunction,Conductor*
%ADD18C,0.254000*%
G04 #@! TD*
G04 #@! TA.AperFunction,Conductor*
%ADD19C,0.150000*%
G04 #@! TD*
G04 APERTURE END LIST*
D10*
X163830000Y-58500000D03*
D11*
X163830000Y-63500000D03*
X163830000Y-68500000D03*
X163830000Y-73500000D03*
G04 #@! TA.AperFunction,ComponentPad*
G36*
G01*
X135970000Y-77340001D02*
X135970000Y-80139999D01*
G75*
G02*
X135719999Y-80390000I-250001J0D01*
G01*
X133520001Y-80390000D01*
G75*
G02*
X133270000Y-80139999I0J250001D01*
G01*
X133270000Y-77340001D01*
G75*
G02*
X133520001Y-77090000I250001J0D01*
G01*
X135719999Y-77090000D01*
G75*
G02*
X135970000Y-77340001I0J-250001D01*
G01*
G37*
G04 #@! TD.AperFunction*
D12*
X130420000Y-78740000D03*
X126220000Y-78740000D03*
X122020000Y-78740000D03*
X117820000Y-78740000D03*
X113620000Y-78740000D03*
X109420000Y-78740000D03*
X134620000Y-73240000D03*
X130420000Y-73240000D03*
X126220000Y-73240000D03*
X122020000Y-73240000D03*
X117820000Y-73240000D03*
X113620000Y-73240000D03*
X109420000Y-73240000D03*
X134420000Y-102020000D03*
X130220000Y-102020000D03*
X126020000Y-102020000D03*
X121820000Y-102020000D03*
X117620000Y-102020000D03*
X113420000Y-102020000D03*
X109220000Y-102020000D03*
X134420000Y-96520000D03*
X130220000Y-96520000D03*
X126020000Y-96520000D03*
X121820000Y-96520000D03*
X117620000Y-96520000D03*
X113420000Y-96520000D03*
G04 #@! TA.AperFunction,ComponentPad*
G36*
G01*
X107870000Y-97919999D02*
X107870000Y-95120001D01*
G75*
G02*
X108120001Y-94870000I250001J0D01*
G01*
X110319999Y-94870000D01*
G75*
G02*
X110570000Y-95120001I0J-250001D01*
G01*
X110570000Y-97919999D01*
G75*
G02*
X110319999Y-98170000I-250001J0D01*
G01*
X108120001Y-98170000D01*
G75*
G02*
X107870000Y-97919999I0J250001D01*
G01*
G37*
G04 #@! TD.AperFunction*
D13*
X224000000Y-60500000D03*
D14*
X227225000Y-60500000D03*
X226280419Y-62780419D03*
X224000000Y-63725000D03*
X221719581Y-62780419D03*
X220775000Y-60500000D03*
X221719581Y-58219581D03*
X224000000Y-57275000D03*
X226280419Y-58219581D03*
X226280419Y-112219581D03*
X224000000Y-111275000D03*
X221719581Y-112219581D03*
X220775000Y-114500000D03*
X221719581Y-116780419D03*
X224000000Y-117725000D03*
X226280419Y-116780419D03*
X227225000Y-114500000D03*
D13*
X224000000Y-114500000D03*
X111000000Y-114500000D03*
D14*
X114225000Y-114500000D03*
X113280419Y-116780419D03*
X111000000Y-117725000D03*
X108719581Y-116780419D03*
X107775000Y-114500000D03*
X108719581Y-112219581D03*
X111000000Y-111275000D03*
X113280419Y-112219581D03*
X112780419Y-58719581D03*
X110500000Y-57775000D03*
X108219581Y-58719581D03*
X107275000Y-61000000D03*
X108219581Y-63280419D03*
X110500000Y-64225000D03*
X112780419Y-63280419D03*
X113725000Y-61000000D03*
D13*
X110500000Y-61000000D03*
D15*
X171704000Y-64516000D03*
X172720000Y-55626000D03*
X203962000Y-78994000D03*
X192532000Y-91948000D03*
X195376800Y-84886800D03*
X217932000Y-99060000D03*
X218694000Y-90170000D03*
X184150000Y-83058000D03*
X182626000Y-71628000D03*
X174244000Y-97028000D03*
X184150000Y-74930000D03*
X208280000Y-97790000D03*
X203962000Y-89662000D03*
X212090000Y-99060000D03*
X205740000Y-91440000D03*
X184150000Y-64516000D03*
X198882000Y-89154000D03*
X182880000Y-59944000D03*
X199644000Y-88392000D03*
X200406000Y-89154000D03*
X181610000Y-64516000D03*
X201930000Y-95250000D03*
X176530000Y-64770000D03*
X151130000Y-85090000D03*
X203962000Y-86360000D03*
X191770000Y-85090000D03*
X205232000Y-89408000D03*
X215900000Y-86360000D03*
X213360000Y-100330000D03*
X197612000Y-88138000D03*
X196342000Y-90170000D03*
X163830000Y-80010000D03*
D16*
X172800000Y-58500000D02*
X163830000Y-58500000D01*
X203962000Y-93472000D02*
X208280000Y-97790000D01*
X203962000Y-89662000D02*
X203962000Y-93472000D01*
X202455009Y-88155009D02*
X203962000Y-89662000D01*
X202455009Y-86631009D02*
X186961010Y-71137010D01*
X202455009Y-88155009D02*
X202455009Y-86631009D01*
X186961009Y-62209531D02*
X183251478Y-58500000D01*
X186961010Y-71137010D02*
X186961009Y-62209531D01*
X184150000Y-68580000D02*
X174070000Y-58500000D01*
X184150000Y-74930000D02*
X184150000Y-68580000D01*
X174070000Y-58500000D02*
X172800000Y-58500000D01*
X183251478Y-58500000D02*
X174070000Y-58500000D01*
D17*
X205740000Y-92710000D02*
X212090000Y-99060000D01*
X205740000Y-91440000D02*
X205740000Y-92710000D01*
X198882000Y-89154000D02*
X198882000Y-85215590D01*
X198882000Y-85215590D02*
X185420000Y-71753590D01*
X185420000Y-65786000D02*
X184150000Y-64516000D01*
X185420000Y-71753590D02*
X185420000Y-65786000D01*
X199644000Y-85341180D02*
X199644000Y-88392000D01*
X185929410Y-71626590D02*
X199644000Y-85341180D01*
X185929410Y-62993410D02*
X185929410Y-71626590D01*
X182880000Y-59944000D02*
X185929410Y-62993410D01*
X200406000Y-89154000D02*
X200406000Y-85334965D01*
X200406000Y-85334965D02*
X186436000Y-71364965D01*
X186436000Y-71364965D02*
X186436000Y-62426998D01*
X181610000Y-60140998D02*
X181610000Y-64516000D01*
X182531999Y-59218999D02*
X181610000Y-60140998D01*
X183228001Y-59218999D02*
X182531999Y-59218999D01*
X186436000Y-62426998D02*
X183228001Y-59218999D01*
X197575001Y-90895001D02*
X201930000Y-95250000D01*
X197575001Y-90329999D02*
X197575001Y-90895001D01*
X196792010Y-89547008D02*
X197575001Y-90329999D01*
X189230000Y-76200000D02*
X196792010Y-83762010D01*
X184346998Y-76200000D02*
X189230000Y-76200000D01*
X196792010Y-83762010D02*
X196792010Y-89547008D01*
X176530000Y-68383002D02*
X184346998Y-76200000D01*
X176530000Y-64770000D02*
X176530000Y-68383002D01*
X116088821Y-102020000D02*
X117620000Y-102020000D01*
X111095010Y-97026189D02*
X116088821Y-102020000D01*
X114014990Y-75215010D02*
X111095010Y-78134990D01*
X124244990Y-75215010D02*
X114014990Y-75215010D01*
X111095010Y-78134990D02*
X111095010Y-97026189D01*
X126220000Y-73240000D02*
X124244990Y-75215010D01*
X121210000Y-69850000D02*
X117820000Y-73240000D01*
X135890000Y-69850000D02*
X121210000Y-69850000D01*
X151130000Y-85090000D02*
X135890000Y-69850000D01*
X111195010Y-103995010D02*
X109220000Y-102020000D01*
X220668010Y-89418598D02*
X220668009Y-98541403D01*
X215214402Y-103995010D02*
X111195010Y-103995010D01*
X216434402Y-85184990D02*
X220668010Y-89418598D01*
X205137010Y-85184990D02*
X216434402Y-85184990D01*
X220668009Y-98541403D02*
X215214402Y-103995010D01*
X203962000Y-86360000D02*
X205137010Y-85184990D01*
X132524999Y-85815001D02*
X121820000Y-96520000D01*
X191044999Y-85815001D02*
X132524999Y-85815001D01*
X191770000Y-85090000D02*
X191044999Y-85815001D01*
X216248001Y-85634999D02*
X220218000Y-89604998D01*
X209005001Y-85634999D02*
X216248001Y-85634999D01*
X205232000Y-89408000D02*
X209005001Y-85634999D01*
X220218000Y-98355002D02*
X215449002Y-103124000D01*
X220218000Y-89604998D02*
X220218000Y-98355002D01*
X115395010Y-98495010D02*
X113420000Y-96520000D01*
X133563831Y-98495010D02*
X115395010Y-98495010D01*
X138192821Y-103124000D02*
X133563831Y-98495010D01*
X215449002Y-103124000D02*
X138192821Y-103124000D01*
X213360000Y-88900000D02*
X213360000Y-100330000D01*
X215900000Y-86360000D02*
X213360000Y-88900000D01*
X208534000Y-100330000D02*
X213360000Y-100330000D01*
X208083002Y-100330000D02*
X208534000Y-100330000D01*
X202278001Y-94524999D02*
X208083002Y-100330000D01*
X198120000Y-90803590D02*
X201841409Y-94524999D01*
X198120000Y-90170000D02*
X198120000Y-90803590D01*
X197242020Y-89292020D02*
X198120000Y-90170000D01*
X197242020Y-88507980D02*
X197242020Y-89292020D01*
X201841409Y-94524999D02*
X202278001Y-94524999D01*
X197612000Y-88138000D02*
X197242020Y-88507980D01*
X196342000Y-83948410D02*
X196342000Y-90170000D01*
X192403590Y-80010000D02*
X196342000Y-83948410D01*
X163830000Y-80010000D02*
X192403590Y-80010000D01*
D18*
X233223000Y-60046981D02*
X233223000Y-115827394D01*
X225677394Y-123373000D01*
X110206981Y-123373000D01*
X101397000Y-115821587D01*
X101397000Y-114013945D01*
X106065000Y-114013945D01*
X106065000Y-114986055D01*
X106254650Y-115939486D01*
X106626660Y-116837599D01*
X107166735Y-117645879D01*
X107854121Y-118333265D01*
X108662401Y-118873340D01*
X109560514Y-119245350D01*
X110513945Y-119435000D01*
X111486055Y-119435000D01*
X112439486Y-119245350D01*
X113337599Y-118873340D01*
X114145879Y-118333265D01*
X114833265Y-117645879D01*
X115373340Y-116837599D01*
X115745350Y-115939486D01*
X115935000Y-114986055D01*
X115935000Y-114013945D01*
X219065000Y-114013945D01*
X219065000Y-114986055D01*
X219254650Y-115939486D01*
X219626660Y-116837599D01*
X220166735Y-117645879D01*
X220854121Y-118333265D01*
X221662401Y-118873340D01*
X222560514Y-119245350D01*
X223513945Y-119435000D01*
X224486055Y-119435000D01*
X225439486Y-119245350D01*
X226337599Y-118873340D01*
X227145879Y-118333265D01*
X227833265Y-117645879D01*
X228373340Y-116837599D01*
X228745350Y-115939486D01*
X228935000Y-114986055D01*
X228935000Y-114013945D01*
X228745350Y-113060514D01*
X228373340Y-112162401D01*
X227833265Y-111354121D01*
X227145879Y-110666735D01*
X226337599Y-110126660D01*
X225439486Y-109754650D01*
X224486055Y-109565000D01*
X223513945Y-109565000D01*
X222560514Y-109754650D01*
X221662401Y-110126660D01*
X220854121Y-110666735D01*
X220166735Y-111354121D01*
X219626660Y-112162401D01*
X219254650Y-113060514D01*
X219065000Y-114013945D01*
X115935000Y-114013945D01*
X115745350Y-113060514D01*
X115373340Y-112162401D01*
X114833265Y-111354121D01*
X114145879Y-110666735D01*
X113337599Y-110126660D01*
X112439486Y-109754650D01*
X111486055Y-109565000D01*
X110513945Y-109565000D01*
X109560514Y-109754650D01*
X108662401Y-110126660D01*
X107854121Y-110666735D01*
X107166735Y-111354121D01*
X106626660Y-112162401D01*
X106254650Y-113060514D01*
X106065000Y-114013945D01*
X101397000Y-114013945D01*
X101397000Y-101622491D01*
X107235000Y-101622491D01*
X107235000Y-102417510D01*
X107263722Y-102709128D01*
X107377226Y-103083302D01*
X107561547Y-103428143D01*
X107809603Y-103730398D01*
X108111858Y-103978453D01*
X108456699Y-104162774D01*
X108830873Y-104276278D01*
X109220000Y-104314604D01*
X109609128Y-104276278D01*
X109983302Y-104162774D01*
X110181848Y-104056649D01*
X110631211Y-104506013D01*
X110655009Y-104535011D01*
X110684007Y-104558809D01*
X110770733Y-104629984D01*
X110902763Y-104700556D01*
X111046024Y-104744013D01*
X111157677Y-104755010D01*
X111157687Y-104755010D01*
X111195010Y-104758686D01*
X111232333Y-104755010D01*
X215177080Y-104755010D01*
X215214402Y-104758686D01*
X215251724Y-104755010D01*
X215251735Y-104755010D01*
X215363388Y-104744013D01*
X215506649Y-104700556D01*
X215638678Y-104629984D01*
X215754403Y-104535011D01*
X215778206Y-104506007D01*
X221179016Y-99105198D01*
X221208009Y-99081404D01*
X221231803Y-99052411D01*
X221231808Y-99052406D01*
X221302983Y-98965680D01*
X221373555Y-98833650D01*
X221417011Y-98690389D01*
X221431685Y-98541403D01*
X221428008Y-98504071D01*
X221428010Y-89455921D01*
X221431686Y-89418598D01*
X221428010Y-89381275D01*
X221428010Y-89381266D01*
X221417013Y-89269613D01*
X221386738Y-89169808D01*
X221373556Y-89126351D01*
X221302984Y-88994322D01*
X221231809Y-88907595D01*
X221231805Y-88907591D01*
X221208011Y-88878598D01*
X221179018Y-88854804D01*
X216998206Y-84673993D01*
X216974403Y-84644989D01*
X216858678Y-84550016D01*
X216726649Y-84479444D01*
X216583388Y-84435987D01*
X216471735Y-84424990D01*
X216471724Y-84424990D01*
X216434402Y-84421314D01*
X216397080Y-84424990D01*
X205174332Y-84424990D01*
X205137009Y-84421314D01*
X205099686Y-84424990D01*
X205099677Y-84424990D01*
X204988024Y-84435987D01*
X204844763Y-84479444D01*
X204712733Y-84550016D01*
X204652140Y-84599744D01*
X204597009Y-84644989D01*
X204573211Y-84673987D01*
X203922199Y-85325000D01*
X203860061Y-85325000D01*
X203660102Y-85364774D01*
X203471744Y-85442795D01*
X203302226Y-85556063D01*
X203158063Y-85700226D01*
X203044795Y-85869744D01*
X202994950Y-85990081D01*
X187796010Y-70791143D01*
X187796008Y-62250559D01*
X187800049Y-62209530D01*
X187783927Y-62045842D01*
X187736181Y-61888444D01*
X187658645Y-61743385D01*
X187580447Y-61648101D01*
X187580445Y-61648099D01*
X187554299Y-61616240D01*
X187522440Y-61590094D01*
X185946291Y-60013945D01*
X219065000Y-60013945D01*
X219065000Y-60986055D01*
X219254650Y-61939486D01*
X219626660Y-62837599D01*
X220166735Y-63645879D01*
X220854121Y-64333265D01*
X221662401Y-64873340D01*
X222560514Y-65245350D01*
X223513945Y-65435000D01*
X224486055Y-65435000D01*
X225439486Y-65245350D01*
X226337599Y-64873340D01*
X227145879Y-64333265D01*
X227833265Y-63645879D01*
X228373340Y-62837599D01*
X228745350Y-61939486D01*
X228935000Y-60986055D01*
X228935000Y-60013945D01*
X228745350Y-59060514D01*
X228373340Y-58162401D01*
X227833265Y-57354121D01*
X227145879Y-56666735D01*
X226337599Y-56126660D01*
X225439486Y-55754650D01*
X224486055Y-55565000D01*
X223513945Y-55565000D01*
X222560514Y-55754650D01*
X221662401Y-56126660D01*
X220854121Y-56666735D01*
X220166735Y-57354121D01*
X219626660Y-58162401D01*
X219254650Y-59060514D01*
X219065000Y-60013945D01*
X185946291Y-60013945D01*
X183870924Y-57938579D01*
X183844769Y-57906709D01*
X183717624Y-57802364D01*
X183572565Y-57724828D01*
X183415167Y-57677082D01*
X183292497Y-57665000D01*
X183292496Y-57665000D01*
X183251478Y-57660960D01*
X183210460Y-57665000D01*
X174111018Y-57665000D01*
X174070000Y-57660960D01*
X174028982Y-57665000D01*
X165768072Y-57665000D01*
X165768072Y-57200000D01*
X165755812Y-57075518D01*
X165719502Y-56955820D01*
X165660537Y-56845506D01*
X165581185Y-56748815D01*
X165484494Y-56669463D01*
X165374180Y-56610498D01*
X165254482Y-56574188D01*
X165130000Y-56561928D01*
X162530000Y-56561928D01*
X162405518Y-56574188D01*
X162285820Y-56610498D01*
X162175506Y-56669463D01*
X162078815Y-56748815D01*
X161999463Y-56845506D01*
X161940498Y-56955820D01*
X161904188Y-57075518D01*
X161891928Y-57200000D01*
X161891928Y-59800000D01*
X161904188Y-59924482D01*
X161940498Y-60044180D01*
X161999463Y-60154494D01*
X162078815Y-60251185D01*
X162175506Y-60330537D01*
X162285820Y-60389502D01*
X162405518Y-60425812D01*
X162530000Y-60438072D01*
X165130000Y-60438072D01*
X165254482Y-60425812D01*
X165374180Y-60389502D01*
X165484494Y-60330537D01*
X165581185Y-60251185D01*
X165660537Y-60154494D01*
X165719502Y-60044180D01*
X165755812Y-59924482D01*
X165768072Y-59800000D01*
X165768072Y-59335000D01*
X173724133Y-59335000D01*
X183315001Y-68925870D01*
X183315000Y-74093200D01*
X177290000Y-68068201D01*
X177290000Y-65473711D01*
X177333937Y-65429774D01*
X177447205Y-65260256D01*
X177525226Y-65071898D01*
X177565000Y-64871939D01*
X177565000Y-64668061D01*
X177525226Y-64468102D01*
X177447205Y-64279744D01*
X177333937Y-64110226D01*
X177189774Y-63966063D01*
X177020256Y-63852795D01*
X176831898Y-63774774D01*
X176631939Y-63735000D01*
X176428061Y-63735000D01*
X176228102Y-63774774D01*
X176039744Y-63852795D01*
X175870226Y-63966063D01*
X175726063Y-64110226D01*
X175612795Y-64279744D01*
X175534774Y-64468102D01*
X175495000Y-64668061D01*
X175495000Y-64871939D01*
X175534774Y-65071898D01*
X175612795Y-65260256D01*
X175726063Y-65429774D01*
X175770000Y-65473711D01*
X175770001Y-68345670D01*
X175766324Y-68383002D01*
X175770001Y-68420335D01*
X175780998Y-68531988D01*
X175794180Y-68575444D01*
X175824454Y-68675248D01*
X175895026Y-68807278D01*
X175966201Y-68894004D01*
X175990000Y-68923003D01*
X176018998Y-68946801D01*
X183783198Y-76711002D01*
X183806997Y-76740001D01*
X183835995Y-76763799D01*
X183922722Y-76834974D01*
X184054751Y-76905546D01*
X184198012Y-76949003D01*
X184346998Y-76963677D01*
X184384331Y-76960000D01*
X188915199Y-76960000D01*
X191205199Y-79250000D01*
X164533711Y-79250000D01*
X164489774Y-79206063D01*
X164320256Y-79092795D01*
X164131898Y-79014774D01*
X163931939Y-78975000D01*
X163728061Y-78975000D01*
X163528102Y-79014774D01*
X163339744Y-79092795D01*
X163170226Y-79206063D01*
X163026063Y-79350226D01*
X162912795Y-79519744D01*
X162834774Y-79708102D01*
X162795000Y-79908061D01*
X162795000Y-80111939D01*
X162834774Y-80311898D01*
X162912795Y-80500256D01*
X163026063Y-80669774D01*
X163170226Y-80813937D01*
X163339744Y-80927205D01*
X163528102Y-81005226D01*
X163728061Y-81045000D01*
X163931939Y-81045000D01*
X164131898Y-81005226D01*
X164320256Y-80927205D01*
X164489774Y-80813937D01*
X164533711Y-80770000D01*
X192088789Y-80770000D01*
X195582000Y-84263212D01*
X195582001Y-89466288D01*
X195538063Y-89510226D01*
X195424795Y-89679744D01*
X195346774Y-89868102D01*
X195307000Y-90068061D01*
X195307000Y-90271939D01*
X195346774Y-90471898D01*
X195424795Y-90660256D01*
X195538063Y-90829774D01*
X195682226Y-90973937D01*
X195851744Y-91087205D01*
X196040102Y-91165226D01*
X196240061Y-91205000D01*
X196443939Y-91205000D01*
X196643898Y-91165226D01*
X196832256Y-91087205D01*
X196837953Y-91083398D01*
X196869455Y-91187248D01*
X196878944Y-91205000D01*
X196940027Y-91319277D01*
X197008464Y-91402667D01*
X197035001Y-91435002D01*
X197063999Y-91458800D01*
X200895000Y-95289802D01*
X200895000Y-95351939D01*
X200934774Y-95551898D01*
X201012795Y-95740256D01*
X201126063Y-95909774D01*
X201270226Y-96053937D01*
X201439744Y-96167205D01*
X201628102Y-96245226D01*
X201828061Y-96285000D01*
X202031939Y-96285000D01*
X202231898Y-96245226D01*
X202420256Y-96167205D01*
X202589774Y-96053937D01*
X202660956Y-95982755D01*
X207519203Y-100841003D01*
X207543001Y-100870001D01*
X207571999Y-100893799D01*
X207658725Y-100964974D01*
X207790755Y-101035546D01*
X207934016Y-101079003D01*
X208045669Y-101090000D01*
X208045678Y-101090000D01*
X208083001Y-101093676D01*
X208120324Y-101090000D01*
X212656289Y-101090000D01*
X212700226Y-101133937D01*
X212869744Y-101247205D01*
X213058102Y-101325226D01*
X213258061Y-101365000D01*
X213461939Y-101365000D01*
X213661898Y-101325226D01*
X213850256Y-101247205D01*
X214019774Y-101133937D01*
X214054613Y-101099098D01*
X214163476Y-101207961D01*
X214348602Y-101331659D01*
X214554304Y-101416863D01*
X214772675Y-101460300D01*
X214995325Y-101460300D01*
X215213696Y-101416863D01*
X215419398Y-101331659D01*
X215604524Y-101207961D01*
X215761961Y-101050524D01*
X215885659Y-100865398D01*
X215900000Y-100830776D01*
X215914341Y-100865398D01*
X216038039Y-101050524D01*
X216195476Y-101207961D01*
X216252283Y-101245918D01*
X215134201Y-102364000D01*
X138507624Y-102364000D01*
X134894119Y-98750496D01*
X135183302Y-98662774D01*
X135528143Y-98478453D01*
X135830398Y-98230398D01*
X136078453Y-97928143D01*
X136262774Y-97583302D01*
X136376278Y-97209127D01*
X136405000Y-96917509D01*
X136405000Y-96122490D01*
X136376278Y-95830872D01*
X136262774Y-95456698D01*
X136078453Y-95111857D01*
X135830398Y-94809602D01*
X135528143Y-94561547D01*
X135183301Y-94377226D01*
X134809127Y-94263722D01*
X134420000Y-94225396D01*
X134030872Y-94263722D01*
X133656698Y-94377226D01*
X133311857Y-94561547D01*
X133009602Y-94809602D01*
X132761547Y-95111857D01*
X132577226Y-95456699D01*
X132463722Y-95830873D01*
X132435000Y-96122491D01*
X132435000Y-96917510D01*
X132463722Y-97209128D01*
X132577226Y-97583302D01*
X132658315Y-97735010D01*
X131981685Y-97735010D01*
X132062774Y-97583302D01*
X132176278Y-97209127D01*
X132205000Y-96917509D01*
X132205000Y-96122490D01*
X132176278Y-95830872D01*
X132062774Y-95456698D01*
X131878453Y-95111857D01*
X131630398Y-94809602D01*
X131328143Y-94561547D01*
X130983301Y-94377226D01*
X130609127Y-94263722D01*
X130220000Y-94225396D01*
X129830872Y-94263722D01*
X129456698Y-94377226D01*
X129111857Y-94561547D01*
X128809602Y-94809602D01*
X128561547Y-95111857D01*
X128377226Y-95456699D01*
X128263722Y-95830873D01*
X128235000Y-96122491D01*
X128235000Y-96917510D01*
X128263722Y-97209128D01*
X128377226Y-97583302D01*
X128458315Y-97735010D01*
X127781685Y-97735010D01*
X127862774Y-97583302D01*
X127976278Y-97209127D01*
X128005000Y-96917509D01*
X128005000Y-96122490D01*
X127976278Y-95830872D01*
X127862774Y-95456698D01*
X127678453Y-95111857D01*
X127430398Y-94809602D01*
X127128143Y-94561547D01*
X126783301Y-94377226D01*
X126409127Y-94263722D01*
X126020000Y-94225396D01*
X125630872Y-94263722D01*
X125256698Y-94377226D01*
X124911857Y-94561547D01*
X124609602Y-94809602D01*
X124361547Y-95111857D01*
X124177226Y-95456699D01*
X124063722Y-95830873D01*
X124035000Y-96122491D01*
X124035000Y-96917510D01*
X124063722Y-97209128D01*
X124177226Y-97583302D01*
X124258315Y-97735010D01*
X123581685Y-97735010D01*
X123662774Y-97583302D01*
X123776278Y-97209127D01*
X123805000Y-96917509D01*
X123805000Y-96122490D01*
X123776278Y-95830872D01*
X123731510Y-95683291D01*
X132839801Y-86575001D01*
X191007677Y-86575001D01*
X191044999Y-86578677D01*
X191082321Y-86575001D01*
X191082332Y-86575001D01*
X191193985Y-86564004D01*
X191337246Y-86520547D01*
X191469275Y-86449975D01*
X191585000Y-86355002D01*
X191608802Y-86325999D01*
X191809801Y-86125000D01*
X191871939Y-86125000D01*
X192071898Y-86085226D01*
X192260256Y-86007205D01*
X192429774Y-85893937D01*
X192573937Y-85749774D01*
X192687205Y-85580256D01*
X192765226Y-85391898D01*
X192805000Y-85191939D01*
X192805000Y-84988061D01*
X192765226Y-84788102D01*
X192687205Y-84599744D01*
X192573937Y-84430226D01*
X192429774Y-84286063D01*
X192260256Y-84172795D01*
X192071898Y-84094774D01*
X191871939Y-84055000D01*
X191668061Y-84055000D01*
X191468102Y-84094774D01*
X191279744Y-84172795D01*
X191110226Y-84286063D01*
X190966063Y-84430226D01*
X190852795Y-84599744D01*
X190774774Y-84788102D01*
X190735000Y-84988061D01*
X190735000Y-85050199D01*
X190730198Y-85055001D01*
X152165000Y-85055001D01*
X152165000Y-84988061D01*
X152125226Y-84788102D01*
X152047205Y-84599744D01*
X151933937Y-84430226D01*
X151789774Y-84286063D01*
X151620256Y-84172795D01*
X151431898Y-84094774D01*
X151231939Y-84055000D01*
X151169802Y-84055000D01*
X140424221Y-73309419D01*
X161895000Y-73309419D01*
X161895000Y-73690581D01*
X161969361Y-74064419D01*
X162115225Y-74416566D01*
X162326987Y-74733491D01*
X162596509Y-75003013D01*
X162913434Y-75214775D01*
X163265581Y-75360639D01*
X163639419Y-75435000D01*
X164020581Y-75435000D01*
X164394419Y-75360639D01*
X164746566Y-75214775D01*
X165063491Y-75003013D01*
X165333013Y-74733491D01*
X165544775Y-74416566D01*
X165690639Y-74064419D01*
X165765000Y-73690581D01*
X165765000Y-73309419D01*
X165690639Y-72935581D01*
X165544775Y-72583434D01*
X165333013Y-72266509D01*
X165063491Y-71996987D01*
X164746566Y-71785225D01*
X164394419Y-71639361D01*
X164020581Y-71565000D01*
X163639419Y-71565000D01*
X163265581Y-71639361D01*
X162913434Y-71785225D01*
X162596509Y-71996987D01*
X162326987Y-72266509D01*
X162115225Y-72583434D01*
X161969361Y-72935581D01*
X161895000Y-73309419D01*
X140424221Y-73309419D01*
X136453804Y-69339003D01*
X136430001Y-69309999D01*
X136314276Y-69215026D01*
X136182247Y-69144454D01*
X136038986Y-69100997D01*
X135927333Y-69090000D01*
X135927322Y-69090000D01*
X135890000Y-69086324D01*
X135852678Y-69090000D01*
X121247323Y-69090000D01*
X121210000Y-69086324D01*
X121172677Y-69090000D01*
X121172667Y-69090000D01*
X121061014Y-69100997D01*
X120917753Y-69144454D01*
X120785723Y-69215026D01*
X120709433Y-69277636D01*
X120669999Y-69309999D01*
X120646201Y-69338997D01*
X118781848Y-71203351D01*
X118583302Y-71097226D01*
X118209128Y-70983722D01*
X117820000Y-70945396D01*
X117430873Y-70983722D01*
X117056699Y-71097226D01*
X116711858Y-71281547D01*
X116409603Y-71529602D01*
X116161547Y-71831857D01*
X115977226Y-72176698D01*
X115863722Y-72550872D01*
X115835000Y-72842490D01*
X115835000Y-73637509D01*
X115863722Y-73929127D01*
X115977226Y-74303301D01*
X116058316Y-74455010D01*
X115381720Y-74455010D01*
X115405300Y-74416959D01*
X115542082Y-74051814D01*
X115605000Y-73667000D01*
X115605000Y-73367000D01*
X113747000Y-73367000D01*
X113747000Y-73387000D01*
X113493000Y-73387000D01*
X113493000Y-73367000D01*
X111635000Y-73367000D01*
X111635000Y-73667000D01*
X111697918Y-74051814D01*
X111834700Y-74416959D01*
X112040090Y-74748403D01*
X112306195Y-75033409D01*
X112622789Y-75261024D01*
X112809312Y-75345887D01*
X110963460Y-77191738D01*
X110830398Y-77029602D01*
X110528143Y-76781547D01*
X110183302Y-76597226D01*
X109809128Y-76483722D01*
X109420000Y-76445396D01*
X109030873Y-76483722D01*
X108656699Y-76597226D01*
X108311858Y-76781547D01*
X108009603Y-77029602D01*
X107761547Y-77331857D01*
X107577226Y-77676698D01*
X107463722Y-78050872D01*
X107435000Y-78342490D01*
X107435000Y-79137509D01*
X107463722Y-79429127D01*
X107577226Y-79803301D01*
X107761547Y-80148143D01*
X108009602Y-80450398D01*
X108311857Y-80698453D01*
X108656698Y-80882774D01*
X109030872Y-80996278D01*
X109420000Y-81034604D01*
X109809127Y-80996278D01*
X110183301Y-80882774D01*
X110335010Y-80801684D01*
X110335011Y-94232606D01*
X109505750Y-94235000D01*
X109347000Y-94393750D01*
X109347000Y-96393000D01*
X109367000Y-96393000D01*
X109367000Y-96647000D01*
X109347000Y-96647000D01*
X109347000Y-98646250D01*
X109505750Y-98805000D01*
X110570000Y-98808072D01*
X110694482Y-98795812D01*
X110814180Y-98759502D01*
X110924494Y-98700537D01*
X111021185Y-98621185D01*
X111100537Y-98524494D01*
X111159502Y-98414180D01*
X111195812Y-98294482D01*
X111204122Y-98210103D01*
X112821311Y-99827291D01*
X112656698Y-99877226D01*
X112311857Y-100061547D01*
X112009602Y-100309602D01*
X111761547Y-100611857D01*
X111577226Y-100956699D01*
X111463722Y-101330873D01*
X111435000Y-101622491D01*
X111435000Y-102417510D01*
X111463722Y-102709128D01*
X111577226Y-103083302D01*
X111658315Y-103235010D01*
X111509812Y-103235010D01*
X111131510Y-102856708D01*
X111176278Y-102709127D01*
X111205000Y-102417509D01*
X111205000Y-101622490D01*
X111176278Y-101330872D01*
X111062774Y-100956698D01*
X110878453Y-100611857D01*
X110630398Y-100309602D01*
X110328143Y-100061547D01*
X109983301Y-99877226D01*
X109609127Y-99763722D01*
X109220000Y-99725396D01*
X108830872Y-99763722D01*
X108456698Y-99877226D01*
X108111857Y-100061547D01*
X107809602Y-100309602D01*
X107561547Y-100611857D01*
X107377226Y-100956699D01*
X107263722Y-101330873D01*
X107235000Y-101622491D01*
X101397000Y-101622491D01*
X101397000Y-98170000D01*
X107231928Y-98170000D01*
X107244188Y-98294482D01*
X107280498Y-98414180D01*
X107339463Y-98524494D01*
X107418815Y-98621185D01*
X107515506Y-98700537D01*
X107625820Y-98759502D01*
X107745518Y-98795812D01*
X107870000Y-98808072D01*
X108934250Y-98805000D01*
X109093000Y-98646250D01*
X109093000Y-96647000D01*
X107393750Y-96647000D01*
X107235000Y-96805750D01*
X107231928Y-98170000D01*
X101397000Y-98170000D01*
X101397000Y-94870000D01*
X107231928Y-94870000D01*
X107235000Y-96234250D01*
X107393750Y-96393000D01*
X109093000Y-96393000D01*
X109093000Y-94393750D01*
X108934250Y-94235000D01*
X107870000Y-94231928D01*
X107745518Y-94244188D01*
X107625820Y-94280498D01*
X107515506Y-94339463D01*
X107418815Y-94418815D01*
X107339463Y-94515506D01*
X107280498Y-94625820D01*
X107244188Y-94745518D01*
X107231928Y-94870000D01*
X101397000Y-94870000D01*
X101397000Y-73367000D01*
X107435000Y-73367000D01*
X107435000Y-73667000D01*
X107497918Y-74051814D01*
X107634700Y-74416959D01*
X107840090Y-74748403D01*
X108106195Y-75033409D01*
X108422789Y-75261024D01*
X108777705Y-75422501D01*
X108984677Y-75476677D01*
X109293000Y-75361829D01*
X109293000Y-73367000D01*
X109547000Y-73367000D01*
X109547000Y-75361829D01*
X109855323Y-75476677D01*
X110062295Y-75422501D01*
X110417211Y-75261024D01*
X110733805Y-75033409D01*
X110999910Y-74748403D01*
X111205300Y-74416959D01*
X111342082Y-74051814D01*
X111405000Y-73667000D01*
X111405000Y-73367000D01*
X109547000Y-73367000D01*
X109293000Y-73367000D01*
X107435000Y-73367000D01*
X101397000Y-73367000D01*
X101397000Y-72813000D01*
X107435000Y-72813000D01*
X107435000Y-73113000D01*
X109293000Y-73113000D01*
X109293000Y-71118171D01*
X109547000Y-71118171D01*
X109547000Y-73113000D01*
X111405000Y-73113000D01*
X111405000Y-72813000D01*
X111635000Y-72813000D01*
X111635000Y-73113000D01*
X113493000Y-73113000D01*
X113493000Y-71118171D01*
X113747000Y-71118171D01*
X113747000Y-73113000D01*
X115605000Y-73113000D01*
X115605000Y-72813000D01*
X115542082Y-72428186D01*
X115405300Y-72063041D01*
X115199910Y-71731597D01*
X114933805Y-71446591D01*
X114617211Y-71218976D01*
X114262295Y-71057499D01*
X114055323Y-71003323D01*
X113747000Y-71118171D01*
X113493000Y-71118171D01*
X113184677Y-71003323D01*
X112977705Y-71057499D01*
X112622789Y-71218976D01*
X112306195Y-71446591D01*
X112040090Y-71731597D01*
X111834700Y-72063041D01*
X111697918Y-72428186D01*
X111635000Y-72813000D01*
X111405000Y-72813000D01*
X111342082Y-72428186D01*
X111205300Y-72063041D01*
X110999910Y-71731597D01*
X110733805Y-71446591D01*
X110417211Y-71218976D01*
X110062295Y-71057499D01*
X109855323Y-71003323D01*
X109547000Y-71118171D01*
X109293000Y-71118171D01*
X108984677Y-71003323D01*
X108777705Y-71057499D01*
X108422789Y-71218976D01*
X108106195Y-71446591D01*
X107840090Y-71731597D01*
X107634700Y-72063041D01*
X107497918Y-72428186D01*
X107435000Y-72813000D01*
X101397000Y-72813000D01*
X101397000Y-68309419D01*
X161895000Y-68309419D01*
X161895000Y-68690581D01*
X161969361Y-69064419D01*
X162115225Y-69416566D01*
X162326987Y-69733491D01*
X162596509Y-70003013D01*
X162913434Y-70214775D01*
X163265581Y-70360639D01*
X163639419Y-70435000D01*
X164020581Y-70435000D01*
X164394419Y-70360639D01*
X164746566Y-70214775D01*
X165063491Y-70003013D01*
X165333013Y-69733491D01*
X165544775Y-69416566D01*
X165690639Y-69064419D01*
X165765000Y-68690581D01*
X165765000Y-68309419D01*
X165690639Y-67935581D01*
X165544775Y-67583434D01*
X165333013Y-67266509D01*
X165063491Y-66996987D01*
X164746566Y-66785225D01*
X164394419Y-66639361D01*
X164020581Y-66565000D01*
X163639419Y-66565000D01*
X163265581Y-66639361D01*
X162913434Y-66785225D01*
X162596509Y-66996987D01*
X162326987Y-67266509D01*
X162115225Y-67583434D01*
X161969361Y-67935581D01*
X161895000Y-68309419D01*
X101397000Y-68309419D01*
X101397000Y-60513945D01*
X105565000Y-60513945D01*
X105565000Y-61486055D01*
X105754650Y-62439486D01*
X106126660Y-63337599D01*
X106666735Y-64145879D01*
X107354121Y-64833265D01*
X108162401Y-65373340D01*
X109060514Y-65745350D01*
X110013945Y-65935000D01*
X110986055Y-65935000D01*
X111939486Y-65745350D01*
X112837599Y-65373340D01*
X113621994Y-64849224D01*
X162660381Y-64849224D01*
X162792317Y-65144312D01*
X163133045Y-65315159D01*
X163500557Y-65416250D01*
X163880729Y-65443701D01*
X164258951Y-65396457D01*
X164620690Y-65276333D01*
X164867683Y-65144312D01*
X164999619Y-64849224D01*
X163830000Y-63679605D01*
X162660381Y-64849224D01*
X113621994Y-64849224D01*
X113645879Y-64833265D01*
X114333265Y-64145879D01*
X114730931Y-63550729D01*
X161886299Y-63550729D01*
X161933543Y-63928951D01*
X162053667Y-64290690D01*
X162185688Y-64537683D01*
X162480776Y-64669619D01*
X163650395Y-63500000D01*
X164009605Y-63500000D01*
X165179224Y-64669619D01*
X165474312Y-64537683D01*
X165645159Y-64196955D01*
X165746250Y-63829443D01*
X165773701Y-63449271D01*
X165726457Y-63071049D01*
X165606333Y-62709310D01*
X165474312Y-62462317D01*
X165179224Y-62330381D01*
X164009605Y-63500000D01*
X163650395Y-63500000D01*
X162480776Y-62330381D01*
X162185688Y-62462317D01*
X162014841Y-62803045D01*
X161913750Y-63170557D01*
X161886299Y-63550729D01*
X114730931Y-63550729D01*
X114873340Y-63337599D01*
X115245350Y-62439486D01*
X115302778Y-62150776D01*
X162660381Y-62150776D01*
X163830000Y-63320395D01*
X164999619Y-62150776D01*
X164867683Y-61855688D01*
X164526955Y-61684841D01*
X164159443Y-61583750D01*
X163779271Y-61556299D01*
X163401049Y-61603543D01*
X163039310Y-61723667D01*
X162792317Y-61855688D01*
X162660381Y-62150776D01*
X115302778Y-62150776D01*
X115435000Y-61486055D01*
X115435000Y-60513945D01*
X115245350Y-59560514D01*
X114873340Y-58662401D01*
X114333265Y-57854121D01*
X113645879Y-57166735D01*
X112837599Y-56626660D01*
X111939486Y-56254650D01*
X110986055Y-56065000D01*
X110013945Y-56065000D01*
X109060514Y-56254650D01*
X108162401Y-56626660D01*
X107354121Y-57166735D01*
X106666735Y-57854121D01*
X106126660Y-58662401D01*
X105754650Y-59560514D01*
X105565000Y-60513945D01*
X101397000Y-60513945D01*
X101397000Y-58782606D01*
X108942606Y-51237000D01*
X225671587Y-51237000D01*
X233223000Y-60046981D01*
G04 #@! TA.AperFunction,Conductor*
D19*
G36*
X233223000Y-60046981D02*
G01*
X233223000Y-115827394D01*
X225677394Y-123373000D01*
X110206981Y-123373000D01*
X101397000Y-115821587D01*
X101397000Y-114013945D01*
X106065000Y-114013945D01*
X106065000Y-114986055D01*
X106254650Y-115939486D01*
X106626660Y-116837599D01*
X107166735Y-117645879D01*
X107854121Y-118333265D01*
X108662401Y-118873340D01*
X109560514Y-119245350D01*
X110513945Y-119435000D01*
X111486055Y-119435000D01*
X112439486Y-119245350D01*
X113337599Y-118873340D01*
X114145879Y-118333265D01*
X114833265Y-117645879D01*
X115373340Y-116837599D01*
X115745350Y-115939486D01*
X115935000Y-114986055D01*
X115935000Y-114013945D01*
X219065000Y-114013945D01*
X219065000Y-114986055D01*
X219254650Y-115939486D01*
X219626660Y-116837599D01*
X220166735Y-117645879D01*
X220854121Y-118333265D01*
X221662401Y-118873340D01*
X222560514Y-119245350D01*
X223513945Y-119435000D01*
X224486055Y-119435000D01*
X225439486Y-119245350D01*
X226337599Y-118873340D01*
X227145879Y-118333265D01*
X227833265Y-117645879D01*
X228373340Y-116837599D01*
X228745350Y-115939486D01*
X228935000Y-114986055D01*
X228935000Y-114013945D01*
X228745350Y-113060514D01*
X228373340Y-112162401D01*
X227833265Y-111354121D01*
X227145879Y-110666735D01*
X226337599Y-110126660D01*
X225439486Y-109754650D01*
X224486055Y-109565000D01*
X223513945Y-109565000D01*
X222560514Y-109754650D01*
X221662401Y-110126660D01*
X220854121Y-110666735D01*
X220166735Y-111354121D01*
X219626660Y-112162401D01*
X219254650Y-113060514D01*
X219065000Y-114013945D01*
X115935000Y-114013945D01*
X115745350Y-113060514D01*
X115373340Y-112162401D01*
X114833265Y-111354121D01*
X114145879Y-110666735D01*
X113337599Y-110126660D01*
X112439486Y-109754650D01*
X111486055Y-109565000D01*
X110513945Y-109565000D01*
X109560514Y-109754650D01*
X108662401Y-110126660D01*
X107854121Y-110666735D01*
X107166735Y-111354121D01*
X106626660Y-112162401D01*
X106254650Y-113060514D01*
X106065000Y-114013945D01*
X101397000Y-114013945D01*
X101397000Y-101622491D01*
X107235000Y-101622491D01*
X107235000Y-102417510D01*
X107263722Y-102709128D01*
X107377226Y-103083302D01*
X107561547Y-103428143D01*
X107809603Y-103730398D01*
X108111858Y-103978453D01*
X108456699Y-104162774D01*
X108830873Y-104276278D01*
X109220000Y-104314604D01*
X109609128Y-104276278D01*
X109983302Y-104162774D01*
X110181848Y-104056649D01*
X110631211Y-104506013D01*
X110655009Y-104535011D01*
X110684007Y-104558809D01*
X110770733Y-104629984D01*
X110902763Y-104700556D01*
X111046024Y-104744013D01*
X111157677Y-104755010D01*
X111157687Y-104755010D01*
X111195010Y-104758686D01*
X111232333Y-104755010D01*
X215177080Y-104755010D01*
X215214402Y-104758686D01*
X215251724Y-104755010D01*
X215251735Y-104755010D01*
X215363388Y-104744013D01*
X215506649Y-104700556D01*
X215638678Y-104629984D01*
X215754403Y-104535011D01*
X215778206Y-104506007D01*
X221179016Y-99105198D01*
X221208009Y-99081404D01*
X221231803Y-99052411D01*
X221231808Y-99052406D01*
X221302983Y-98965680D01*
X221373555Y-98833650D01*
X221417011Y-98690389D01*
X221431685Y-98541403D01*
X221428008Y-98504071D01*
X221428010Y-89455921D01*
X221431686Y-89418598D01*
X221428010Y-89381275D01*
X221428010Y-89381266D01*
X221417013Y-89269613D01*
X221386738Y-89169808D01*
X221373556Y-89126351D01*
X221302984Y-88994322D01*
X221231809Y-88907595D01*
X221231805Y-88907591D01*
X221208011Y-88878598D01*
X221179018Y-88854804D01*
X216998206Y-84673993D01*
X216974403Y-84644989D01*
X216858678Y-84550016D01*
X216726649Y-84479444D01*
X216583388Y-84435987D01*
X216471735Y-84424990D01*
X216471724Y-84424990D01*
X216434402Y-84421314D01*
X216397080Y-84424990D01*
X205174332Y-84424990D01*
X205137009Y-84421314D01*
X205099686Y-84424990D01*
X205099677Y-84424990D01*
X204988024Y-84435987D01*
X204844763Y-84479444D01*
X204712733Y-84550016D01*
X204652140Y-84599744D01*
X204597009Y-84644989D01*
X204573211Y-84673987D01*
X203922199Y-85325000D01*
X203860061Y-85325000D01*
X203660102Y-85364774D01*
X203471744Y-85442795D01*
X203302226Y-85556063D01*
X203158063Y-85700226D01*
X203044795Y-85869744D01*
X202994950Y-85990081D01*
X187796010Y-70791143D01*
X187796008Y-62250559D01*
X187800049Y-62209530D01*
X187783927Y-62045842D01*
X187736181Y-61888444D01*
X187658645Y-61743385D01*
X187580447Y-61648101D01*
X187580445Y-61648099D01*
X187554299Y-61616240D01*
X187522440Y-61590094D01*
X185946291Y-60013945D01*
X219065000Y-60013945D01*
X219065000Y-60986055D01*
X219254650Y-61939486D01*
X219626660Y-62837599D01*
X220166735Y-63645879D01*
X220854121Y-64333265D01*
X221662401Y-64873340D01*
X222560514Y-65245350D01*
X223513945Y-65435000D01*
X224486055Y-65435000D01*
X225439486Y-65245350D01*
X226337599Y-64873340D01*
X227145879Y-64333265D01*
X227833265Y-63645879D01*
X228373340Y-62837599D01*
X228745350Y-61939486D01*
X228935000Y-60986055D01*
X228935000Y-60013945D01*
X228745350Y-59060514D01*
X228373340Y-58162401D01*
X227833265Y-57354121D01*
X227145879Y-56666735D01*
X226337599Y-56126660D01*
X225439486Y-55754650D01*
X224486055Y-55565000D01*
X223513945Y-55565000D01*
X222560514Y-55754650D01*
X221662401Y-56126660D01*
X220854121Y-56666735D01*
X220166735Y-57354121D01*
X219626660Y-58162401D01*
X219254650Y-59060514D01*
X219065000Y-60013945D01*
X185946291Y-60013945D01*
X183870924Y-57938579D01*
X183844769Y-57906709D01*
X183717624Y-57802364D01*
X183572565Y-57724828D01*
X183415167Y-57677082D01*
X183292497Y-57665000D01*
X183292496Y-57665000D01*
X183251478Y-57660960D01*
X183210460Y-57665000D01*
X174111018Y-57665000D01*
X174070000Y-57660960D01*
X174028982Y-57665000D01*
X165768072Y-57665000D01*
X165768072Y-57200000D01*
X165755812Y-57075518D01*
X165719502Y-56955820D01*
X165660537Y-56845506D01*
X165581185Y-56748815D01*
X165484494Y-56669463D01*
X165374180Y-56610498D01*
X165254482Y-56574188D01*
X165130000Y-56561928D01*
X162530000Y-56561928D01*
X162405518Y-56574188D01*
X162285820Y-56610498D01*
X162175506Y-56669463D01*
X162078815Y-56748815D01*
X161999463Y-56845506D01*
X161940498Y-56955820D01*
X161904188Y-57075518D01*
X161891928Y-57200000D01*
X161891928Y-59800000D01*
X161904188Y-59924482D01*
X161940498Y-60044180D01*
X161999463Y-60154494D01*
X162078815Y-60251185D01*
X162175506Y-60330537D01*
X162285820Y-60389502D01*
X162405518Y-60425812D01*
X162530000Y-60438072D01*
X165130000Y-60438072D01*
X165254482Y-60425812D01*
X165374180Y-60389502D01*
X165484494Y-60330537D01*
X165581185Y-60251185D01*
X165660537Y-60154494D01*
X165719502Y-60044180D01*
X165755812Y-59924482D01*
X165768072Y-59800000D01*
X165768072Y-59335000D01*
X173724133Y-59335000D01*
X183315001Y-68925870D01*
X183315000Y-74093200D01*
X177290000Y-68068201D01*
X177290000Y-65473711D01*
X177333937Y-65429774D01*
X177447205Y-65260256D01*
X177525226Y-65071898D01*
X177565000Y-64871939D01*
X177565000Y-64668061D01*
X177525226Y-64468102D01*
X177447205Y-64279744D01*
X177333937Y-64110226D01*
X177189774Y-63966063D01*
X177020256Y-63852795D01*
X176831898Y-63774774D01*
X176631939Y-63735000D01*
X176428061Y-63735000D01*
X176228102Y-63774774D01*
X176039744Y-63852795D01*
X175870226Y-63966063D01*
X175726063Y-64110226D01*
X175612795Y-64279744D01*
X175534774Y-64468102D01*
X175495000Y-64668061D01*
X175495000Y-64871939D01*
X175534774Y-65071898D01*
X175612795Y-65260256D01*
X175726063Y-65429774D01*
X175770000Y-65473711D01*
X175770001Y-68345670D01*
X175766324Y-68383002D01*
X175770001Y-68420335D01*
X175780998Y-68531988D01*
X175794180Y-68575444D01*
X175824454Y-68675248D01*
X175895026Y-68807278D01*
X175966201Y-68894004D01*
X175990000Y-68923003D01*
X176018998Y-68946801D01*
X183783198Y-76711002D01*
X183806997Y-76740001D01*
X183835995Y-76763799D01*
X183922722Y-76834974D01*
X184054751Y-76905546D01*
X184198012Y-76949003D01*
X184346998Y-76963677D01*
X184384331Y-76960000D01*
X188915199Y-76960000D01*
X191205199Y-79250000D01*
X164533711Y-79250000D01*
X164489774Y-79206063D01*
X164320256Y-79092795D01*
X164131898Y-79014774D01*
X163931939Y-78975000D01*
X163728061Y-78975000D01*
X163528102Y-79014774D01*
X163339744Y-79092795D01*
X163170226Y-79206063D01*
X163026063Y-79350226D01*
X162912795Y-79519744D01*
X162834774Y-79708102D01*
X162795000Y-79908061D01*
X162795000Y-80111939D01*
X162834774Y-80311898D01*
X162912795Y-80500256D01*
X163026063Y-80669774D01*
X163170226Y-80813937D01*
X163339744Y-80927205D01*
X163528102Y-81005226D01*
X163728061Y-81045000D01*
X163931939Y-81045000D01*
X164131898Y-81005226D01*
X164320256Y-80927205D01*
X164489774Y-80813937D01*
X164533711Y-80770000D01*
X192088789Y-80770000D01*
X195582000Y-84263212D01*
X195582001Y-89466288D01*
X195538063Y-89510226D01*
X195424795Y-89679744D01*
X195346774Y-89868102D01*
X195307000Y-90068061D01*
X195307000Y-90271939D01*
X195346774Y-90471898D01*
X195424795Y-90660256D01*
X195538063Y-90829774D01*
X195682226Y-90973937D01*
X195851744Y-91087205D01*
X196040102Y-91165226D01*
X196240061Y-91205000D01*
X196443939Y-91205000D01*
X196643898Y-91165226D01*
X196832256Y-91087205D01*
X196837953Y-91083398D01*
X196869455Y-91187248D01*
X196878944Y-91205000D01*
X196940027Y-91319277D01*
X197008464Y-91402667D01*
X197035001Y-91435002D01*
X197063999Y-91458800D01*
X200895000Y-95289802D01*
X200895000Y-95351939D01*
X200934774Y-95551898D01*
X201012795Y-95740256D01*
X201126063Y-95909774D01*
X201270226Y-96053937D01*
X201439744Y-96167205D01*
X201628102Y-96245226D01*
X201828061Y-96285000D01*
X202031939Y-96285000D01*
X202231898Y-96245226D01*
X202420256Y-96167205D01*
X202589774Y-96053937D01*
X202660956Y-95982755D01*
X207519203Y-100841003D01*
X207543001Y-100870001D01*
X207571999Y-100893799D01*
X207658725Y-100964974D01*
X207790755Y-101035546D01*
X207934016Y-101079003D01*
X208045669Y-101090000D01*
X208045678Y-101090000D01*
X208083001Y-101093676D01*
X208120324Y-101090000D01*
X212656289Y-101090000D01*
X212700226Y-101133937D01*
X212869744Y-101247205D01*
X213058102Y-101325226D01*
X213258061Y-101365000D01*
X213461939Y-101365000D01*
X213661898Y-101325226D01*
X213850256Y-101247205D01*
X214019774Y-101133937D01*
X214054613Y-101099098D01*
X214163476Y-101207961D01*
X214348602Y-101331659D01*
X214554304Y-101416863D01*
X214772675Y-101460300D01*
X214995325Y-101460300D01*
X215213696Y-101416863D01*
X215419398Y-101331659D01*
X215604524Y-101207961D01*
X215761961Y-101050524D01*
X215885659Y-100865398D01*
X215900000Y-100830776D01*
X215914341Y-100865398D01*
X216038039Y-101050524D01*
X216195476Y-101207961D01*
X216252283Y-101245918D01*
X215134201Y-102364000D01*
X138507624Y-102364000D01*
X134894119Y-98750496D01*
X135183302Y-98662774D01*
X135528143Y-98478453D01*
X135830398Y-98230398D01*
X136078453Y-97928143D01*
X136262774Y-97583302D01*
X136376278Y-97209127D01*
X136405000Y-96917509D01*
X136405000Y-96122490D01*
X136376278Y-95830872D01*
X136262774Y-95456698D01*
X136078453Y-95111857D01*
X135830398Y-94809602D01*
X135528143Y-94561547D01*
X135183301Y-94377226D01*
X134809127Y-94263722D01*
X134420000Y-94225396D01*
X134030872Y-94263722D01*
X133656698Y-94377226D01*
X133311857Y-94561547D01*
X133009602Y-94809602D01*
X132761547Y-95111857D01*
X132577226Y-95456699D01*
X132463722Y-95830873D01*
X132435000Y-96122491D01*
X132435000Y-96917510D01*
X132463722Y-97209128D01*
X132577226Y-97583302D01*
X132658315Y-97735010D01*
X131981685Y-97735010D01*
X132062774Y-97583302D01*
X132176278Y-97209127D01*
X132205000Y-96917509D01*
X132205000Y-96122490D01*
X132176278Y-95830872D01*
X132062774Y-95456698D01*
X131878453Y-95111857D01*
X131630398Y-94809602D01*
X131328143Y-94561547D01*
X130983301Y-94377226D01*
X130609127Y-94263722D01*
X130220000Y-94225396D01*
X129830872Y-94263722D01*
X129456698Y-94377226D01*
X129111857Y-94561547D01*
X128809602Y-94809602D01*
X128561547Y-95111857D01*
X128377226Y-95456699D01*
X128263722Y-95830873D01*
X128235000Y-96122491D01*
X128235000Y-96917510D01*
X128263722Y-97209128D01*
X128377226Y-97583302D01*
X128458315Y-97735010D01*
X127781685Y-97735010D01*
X127862774Y-97583302D01*
X127976278Y-97209127D01*
X128005000Y-96917509D01*
X128005000Y-96122490D01*
X127976278Y-95830872D01*
X127862774Y-95456698D01*
X127678453Y-95111857D01*
X127430398Y-94809602D01*
X127128143Y-94561547D01*
X126783301Y-94377226D01*
X126409127Y-94263722D01*
X126020000Y-94225396D01*
X125630872Y-94263722D01*
X125256698Y-94377226D01*
X124911857Y-94561547D01*
X124609602Y-94809602D01*
X124361547Y-95111857D01*
X124177226Y-95456699D01*
X124063722Y-95830873D01*
X124035000Y-96122491D01*
X124035000Y-96917510D01*
X124063722Y-97209128D01*
X124177226Y-97583302D01*
X124258315Y-97735010D01*
X123581685Y-97735010D01*
X123662774Y-97583302D01*
X123776278Y-97209127D01*
X123805000Y-96917509D01*
X123805000Y-96122490D01*
X123776278Y-95830872D01*
X123731510Y-95683291D01*
X132839801Y-86575001D01*
X191007677Y-86575001D01*
X191044999Y-86578677D01*
X191082321Y-86575001D01*
X191082332Y-86575001D01*
X191193985Y-86564004D01*
X191337246Y-86520547D01*
X191469275Y-86449975D01*
X191585000Y-86355002D01*
X191608802Y-86325999D01*
X191809801Y-86125000D01*
X191871939Y-86125000D01*
X192071898Y-86085226D01*
X192260256Y-86007205D01*
X192429774Y-85893937D01*
X192573937Y-85749774D01*
X192687205Y-85580256D01*
X192765226Y-85391898D01*
X192805000Y-85191939D01*
X192805000Y-84988061D01*
X192765226Y-84788102D01*
X192687205Y-84599744D01*
X192573937Y-84430226D01*
X192429774Y-84286063D01*
X192260256Y-84172795D01*
X192071898Y-84094774D01*
X191871939Y-84055000D01*
X191668061Y-84055000D01*
X191468102Y-84094774D01*
X191279744Y-84172795D01*
X191110226Y-84286063D01*
X190966063Y-84430226D01*
X190852795Y-84599744D01*
X190774774Y-84788102D01*
X190735000Y-84988061D01*
X190735000Y-85050199D01*
X190730198Y-85055001D01*
X152165000Y-85055001D01*
X152165000Y-84988061D01*
X152125226Y-84788102D01*
X152047205Y-84599744D01*
X151933937Y-84430226D01*
X151789774Y-84286063D01*
X151620256Y-84172795D01*
X151431898Y-84094774D01*
X151231939Y-84055000D01*
X151169802Y-84055000D01*
X140424221Y-73309419D01*
X161895000Y-73309419D01*
X161895000Y-73690581D01*
X161969361Y-74064419D01*
X162115225Y-74416566D01*
X162326987Y-74733491D01*
X162596509Y-75003013D01*
X162913434Y-75214775D01*
X163265581Y-75360639D01*
X163639419Y-75435000D01*
X164020581Y-75435000D01*
X164394419Y-75360639D01*
X164746566Y-75214775D01*
X165063491Y-75003013D01*
X165333013Y-74733491D01*
X165544775Y-74416566D01*
X165690639Y-74064419D01*
X165765000Y-73690581D01*
X165765000Y-73309419D01*
X165690639Y-72935581D01*
X165544775Y-72583434D01*
X165333013Y-72266509D01*
X165063491Y-71996987D01*
X164746566Y-71785225D01*
X164394419Y-71639361D01*
X164020581Y-71565000D01*
X163639419Y-71565000D01*
X163265581Y-71639361D01*
X162913434Y-71785225D01*
X162596509Y-71996987D01*
X162326987Y-72266509D01*
X162115225Y-72583434D01*
X161969361Y-72935581D01*
X161895000Y-73309419D01*
X140424221Y-73309419D01*
X136453804Y-69339003D01*
X136430001Y-69309999D01*
X136314276Y-69215026D01*
X136182247Y-69144454D01*
X136038986Y-69100997D01*
X135927333Y-69090000D01*
X135927322Y-69090000D01*
X135890000Y-69086324D01*
X135852678Y-69090000D01*
X121247323Y-69090000D01*
X121210000Y-69086324D01*
X121172677Y-69090000D01*
X121172667Y-69090000D01*
X121061014Y-69100997D01*
X120917753Y-69144454D01*
X120785723Y-69215026D01*
X120709433Y-69277636D01*
X120669999Y-69309999D01*
X120646201Y-69338997D01*
X118781848Y-71203351D01*
X118583302Y-71097226D01*
X118209128Y-70983722D01*
X117820000Y-70945396D01*
X117430873Y-70983722D01*
X117056699Y-71097226D01*
X116711858Y-71281547D01*
X116409603Y-71529602D01*
X116161547Y-71831857D01*
X115977226Y-72176698D01*
X115863722Y-72550872D01*
X115835000Y-72842490D01*
X115835000Y-73637509D01*
X115863722Y-73929127D01*
X115977226Y-74303301D01*
X116058316Y-74455010D01*
X115381720Y-74455010D01*
X115405300Y-74416959D01*
X115542082Y-74051814D01*
X115605000Y-73667000D01*
X115605000Y-73367000D01*
X113747000Y-73367000D01*
X113747000Y-73387000D01*
X113493000Y-73387000D01*
X113493000Y-73367000D01*
X111635000Y-73367000D01*
X111635000Y-73667000D01*
X111697918Y-74051814D01*
X111834700Y-74416959D01*
X112040090Y-74748403D01*
X112306195Y-75033409D01*
X112622789Y-75261024D01*
X112809312Y-75345887D01*
X110963460Y-77191738D01*
X110830398Y-77029602D01*
X110528143Y-76781547D01*
X110183302Y-76597226D01*
X109809128Y-76483722D01*
X109420000Y-76445396D01*
X109030873Y-76483722D01*
X108656699Y-76597226D01*
X108311858Y-76781547D01*
X108009603Y-77029602D01*
X107761547Y-77331857D01*
X107577226Y-77676698D01*
X107463722Y-78050872D01*
X107435000Y-78342490D01*
X107435000Y-79137509D01*
X107463722Y-79429127D01*
X107577226Y-79803301D01*
X107761547Y-80148143D01*
X108009602Y-80450398D01*
X108311857Y-80698453D01*
X108656698Y-80882774D01*
X109030872Y-80996278D01*
X109420000Y-81034604D01*
X109809127Y-80996278D01*
X110183301Y-80882774D01*
X110335010Y-80801684D01*
X110335011Y-94232606D01*
X109505750Y-94235000D01*
X109347000Y-94393750D01*
X109347000Y-96393000D01*
X109367000Y-96393000D01*
X109367000Y-96647000D01*
X109347000Y-96647000D01*
X109347000Y-98646250D01*
X109505750Y-98805000D01*
X110570000Y-98808072D01*
X110694482Y-98795812D01*
X110814180Y-98759502D01*
X110924494Y-98700537D01*
X111021185Y-98621185D01*
X111100537Y-98524494D01*
X111159502Y-98414180D01*
X111195812Y-98294482D01*
X111204122Y-98210103D01*
X112821311Y-99827291D01*
X112656698Y-99877226D01*
X112311857Y-100061547D01*
X112009602Y-100309602D01*
X111761547Y-100611857D01*
X111577226Y-100956699D01*
X111463722Y-101330873D01*
X111435000Y-101622491D01*
X111435000Y-102417510D01*
X111463722Y-102709128D01*
X111577226Y-103083302D01*
X111658315Y-103235010D01*
X111509812Y-103235010D01*
X111131510Y-102856708D01*
X111176278Y-102709127D01*
X111205000Y-102417509D01*
X111205000Y-101622490D01*
X111176278Y-101330872D01*
X111062774Y-100956698D01*
X110878453Y-100611857D01*
X110630398Y-100309602D01*
X110328143Y-100061547D01*
X109983301Y-99877226D01*
X109609127Y-99763722D01*
X109220000Y-99725396D01*
X108830872Y-99763722D01*
X108456698Y-99877226D01*
X108111857Y-100061547D01*
X107809602Y-100309602D01*
X107561547Y-100611857D01*
X107377226Y-100956699D01*
X107263722Y-101330873D01*
X107235000Y-101622491D01*
X101397000Y-101622491D01*
X101397000Y-98170000D01*
X107231928Y-98170000D01*
X107244188Y-98294482D01*
X107280498Y-98414180D01*
X107339463Y-98524494D01*
X107418815Y-98621185D01*
X107515506Y-98700537D01*
X107625820Y-98759502D01*
X107745518Y-98795812D01*
X107870000Y-98808072D01*
X108934250Y-98805000D01*
X109093000Y-98646250D01*
X109093000Y-96647000D01*
X107393750Y-96647000D01*
X107235000Y-96805750D01*
X107231928Y-98170000D01*
X101397000Y-98170000D01*
X101397000Y-94870000D01*
X107231928Y-94870000D01*
X107235000Y-96234250D01*
X107393750Y-96393000D01*
X109093000Y-96393000D01*
X109093000Y-94393750D01*
X108934250Y-94235000D01*
X107870000Y-94231928D01*
X107745518Y-94244188D01*
X107625820Y-94280498D01*
X107515506Y-94339463D01*
X107418815Y-94418815D01*
X107339463Y-94515506D01*
X107280498Y-94625820D01*
X107244188Y-94745518D01*
X107231928Y-94870000D01*
X101397000Y-94870000D01*
X101397000Y-73367000D01*
X107435000Y-73367000D01*
X107435000Y-73667000D01*
X107497918Y-74051814D01*
X107634700Y-74416959D01*
X107840090Y-74748403D01*
X108106195Y-75033409D01*
X108422789Y-75261024D01*
X108777705Y-75422501D01*
X108984677Y-75476677D01*
X109293000Y-75361829D01*
X109293000Y-73367000D01*
X109547000Y-73367000D01*
X109547000Y-75361829D01*
X109855323Y-75476677D01*
X110062295Y-75422501D01*
X110417211Y-75261024D01*
X110733805Y-75033409D01*
X110999910Y-74748403D01*
X111205300Y-74416959D01*
X111342082Y-74051814D01*
X111405000Y-73667000D01*
X111405000Y-73367000D01*
X109547000Y-73367000D01*
X109293000Y-73367000D01*
X107435000Y-73367000D01*
X101397000Y-73367000D01*
X101397000Y-72813000D01*
X107435000Y-72813000D01*
X107435000Y-73113000D01*
X109293000Y-73113000D01*
X109293000Y-71118171D01*
X109547000Y-71118171D01*
X109547000Y-73113000D01*
X111405000Y-73113000D01*
X111405000Y-72813000D01*
X111635000Y-72813000D01*
X111635000Y-73113000D01*
X113493000Y-73113000D01*
X113493000Y-71118171D01*
X113747000Y-71118171D01*
X113747000Y-73113000D01*
X115605000Y-73113000D01*
X115605000Y-72813000D01*
X115542082Y-72428186D01*
X115405300Y-72063041D01*
X115199910Y-71731597D01*
X114933805Y-71446591D01*
X114617211Y-71218976D01*
X114262295Y-71057499D01*
X114055323Y-71003323D01*
X113747000Y-71118171D01*
X113493000Y-71118171D01*
X113184677Y-71003323D01*
X112977705Y-71057499D01*
X112622789Y-71218976D01*
X112306195Y-71446591D01*
X112040090Y-71731597D01*
X111834700Y-72063041D01*
X111697918Y-72428186D01*
X111635000Y-72813000D01*
X111405000Y-72813000D01*
X111342082Y-72428186D01*
X111205300Y-72063041D01*
X110999910Y-71731597D01*
X110733805Y-71446591D01*
X110417211Y-71218976D01*
X110062295Y-71057499D01*
X109855323Y-71003323D01*
X109547000Y-71118171D01*
X109293000Y-71118171D01*
X108984677Y-71003323D01*
X108777705Y-71057499D01*
X108422789Y-71218976D01*
X108106195Y-71446591D01*
X107840090Y-71731597D01*
X107634700Y-72063041D01*
X107497918Y-72428186D01*
X107435000Y-72813000D01*
X101397000Y-72813000D01*
X101397000Y-68309419D01*
X161895000Y-68309419D01*
X161895000Y-68690581D01*
X161969361Y-69064419D01*
X162115225Y-69416566D01*
X162326987Y-69733491D01*
X162596509Y-70003013D01*
X162913434Y-70214775D01*
X163265581Y-70360639D01*
X163639419Y-70435000D01*
X164020581Y-70435000D01*
X164394419Y-70360639D01*
X164746566Y-70214775D01*
X165063491Y-70003013D01*
X165333013Y-69733491D01*
X165544775Y-69416566D01*
X165690639Y-69064419D01*
X165765000Y-68690581D01*
X165765000Y-68309419D01*
X165690639Y-67935581D01*
X165544775Y-67583434D01*
X165333013Y-67266509D01*
X165063491Y-66996987D01*
X164746566Y-66785225D01*
X164394419Y-66639361D01*
X164020581Y-66565000D01*
X163639419Y-66565000D01*
X163265581Y-66639361D01*
X162913434Y-66785225D01*
X162596509Y-66996987D01*
X162326987Y-67266509D01*
X162115225Y-67583434D01*
X161969361Y-67935581D01*
X161895000Y-68309419D01*
X101397000Y-68309419D01*
X101397000Y-60513945D01*
X105565000Y-60513945D01*
X105565000Y-61486055D01*
X105754650Y-62439486D01*
X106126660Y-63337599D01*
X106666735Y-64145879D01*
X107354121Y-64833265D01*
X108162401Y-65373340D01*
X109060514Y-65745350D01*
X110013945Y-65935000D01*
X110986055Y-65935000D01*
X111939486Y-65745350D01*
X112837599Y-65373340D01*
X113621994Y-64849224D01*
X162660381Y-64849224D01*
X162792317Y-65144312D01*
X163133045Y-65315159D01*
X163500557Y-65416250D01*
X163880729Y-65443701D01*
X164258951Y-65396457D01*
X164620690Y-65276333D01*
X164867683Y-65144312D01*
X164999619Y-64849224D01*
X163830000Y-63679605D01*
X162660381Y-64849224D01*
X113621994Y-64849224D01*
X113645879Y-64833265D01*
X114333265Y-64145879D01*
X114730931Y-63550729D01*
X161886299Y-63550729D01*
X161933543Y-63928951D01*
X162053667Y-64290690D01*
X162185688Y-64537683D01*
X162480776Y-64669619D01*
X163650395Y-63500000D01*
X164009605Y-63500000D01*
X165179224Y-64669619D01*
X165474312Y-64537683D01*
X165645159Y-64196955D01*
X165746250Y-63829443D01*
X165773701Y-63449271D01*
X165726457Y-63071049D01*
X165606333Y-62709310D01*
X165474312Y-62462317D01*
X165179224Y-62330381D01*
X164009605Y-63500000D01*
X163650395Y-63500000D01*
X162480776Y-62330381D01*
X162185688Y-62462317D01*
X162014841Y-62803045D01*
X161913750Y-63170557D01*
X161886299Y-63550729D01*
X114730931Y-63550729D01*
X114873340Y-63337599D01*
X115245350Y-62439486D01*
X115302778Y-62150776D01*
X162660381Y-62150776D01*
X163830000Y-63320395D01*
X164999619Y-62150776D01*
X164867683Y-61855688D01*
X164526955Y-61684841D01*
X164159443Y-61583750D01*
X163779271Y-61556299D01*
X163401049Y-61603543D01*
X163039310Y-61723667D01*
X162792317Y-61855688D01*
X162660381Y-62150776D01*
X115302778Y-62150776D01*
X115435000Y-61486055D01*
X115435000Y-60513945D01*
X115245350Y-59560514D01*
X114873340Y-58662401D01*
X114333265Y-57854121D01*
X113645879Y-57166735D01*
X112837599Y-56626660D01*
X111939486Y-56254650D01*
X110986055Y-56065000D01*
X110013945Y-56065000D01*
X109060514Y-56254650D01*
X108162401Y-56626660D01*
X107354121Y-57166735D01*
X106666735Y-57854121D01*
X106126660Y-58662401D01*
X105754650Y-59560514D01*
X105565000Y-60513945D01*
X101397000Y-60513945D01*
X101397000Y-58782606D01*
X108942606Y-51237000D01*
X225671587Y-51237000D01*
X233223000Y-60046981D01*
G37*
G04 #@! TD.AperFunction*
D18*
X114831210Y-99006012D02*
X114855009Y-99035011D01*
X114884007Y-99058809D01*
X114970733Y-99129984D01*
X115057526Y-99176376D01*
X115102763Y-99200556D01*
X115246024Y-99244013D01*
X115357677Y-99255010D01*
X115357687Y-99255010D01*
X115395010Y-99258686D01*
X115432333Y-99255010D01*
X133249030Y-99255010D01*
X133821311Y-99827291D01*
X133656698Y-99877226D01*
X133311857Y-100061547D01*
X133009602Y-100309602D01*
X132761547Y-100611857D01*
X132577226Y-100956699D01*
X132463722Y-101330873D01*
X132435000Y-101622491D01*
X132435000Y-102417510D01*
X132463722Y-102709128D01*
X132577226Y-103083302D01*
X132658315Y-103235010D01*
X131981720Y-103235010D01*
X132005300Y-103196959D01*
X132142082Y-102831814D01*
X132205000Y-102447000D01*
X132205000Y-102147000D01*
X130347000Y-102147000D01*
X130347000Y-102167000D01*
X130093000Y-102167000D01*
X130093000Y-102147000D01*
X128235000Y-102147000D01*
X128235000Y-102447000D01*
X128297918Y-102831814D01*
X128434700Y-103196959D01*
X128458280Y-103235010D01*
X127781685Y-103235010D01*
X127862774Y-103083302D01*
X127976278Y-102709127D01*
X128005000Y-102417509D01*
X128005000Y-101622490D01*
X128002096Y-101593000D01*
X128235000Y-101593000D01*
X128235000Y-101893000D01*
X130093000Y-101893000D01*
X130093000Y-99898171D01*
X130347000Y-99898171D01*
X130347000Y-101893000D01*
X132205000Y-101893000D01*
X132205000Y-101593000D01*
X132142082Y-101208186D01*
X132005300Y-100843041D01*
X131799910Y-100511597D01*
X131533805Y-100226591D01*
X131217211Y-99998976D01*
X130862295Y-99837499D01*
X130655323Y-99783323D01*
X130347000Y-99898171D01*
X130093000Y-99898171D01*
X129784677Y-99783323D01*
X129577705Y-99837499D01*
X129222789Y-99998976D01*
X128906195Y-100226591D01*
X128640090Y-100511597D01*
X128434700Y-100843041D01*
X128297918Y-101208186D01*
X128235000Y-101593000D01*
X128002096Y-101593000D01*
X127976278Y-101330872D01*
X127862774Y-100956698D01*
X127678453Y-100611857D01*
X127430398Y-100309602D01*
X127128143Y-100061547D01*
X126783301Y-99877226D01*
X126409127Y-99763722D01*
X126020000Y-99725396D01*
X125630872Y-99763722D01*
X125256698Y-99877226D01*
X124911857Y-100061547D01*
X124609602Y-100309602D01*
X124361547Y-100611857D01*
X124177226Y-100956699D01*
X124063722Y-101330873D01*
X124035000Y-101622491D01*
X124035000Y-102417510D01*
X124063722Y-102709128D01*
X124177226Y-103083302D01*
X124258315Y-103235010D01*
X123581685Y-103235010D01*
X123662774Y-103083302D01*
X123776278Y-102709127D01*
X123805000Y-102417509D01*
X123805000Y-101622490D01*
X123776278Y-101330872D01*
X123662774Y-100956698D01*
X123478453Y-100611857D01*
X123230398Y-100309602D01*
X122928143Y-100061547D01*
X122583301Y-99877226D01*
X122209127Y-99763722D01*
X121820000Y-99725396D01*
X121430872Y-99763722D01*
X121056698Y-99877226D01*
X120711857Y-100061547D01*
X120409602Y-100309602D01*
X120161547Y-100611857D01*
X119977226Y-100956699D01*
X119863722Y-101330873D01*
X119835000Y-101622491D01*
X119835000Y-102417510D01*
X119863722Y-102709128D01*
X119977226Y-103083302D01*
X120058315Y-103235010D01*
X119381685Y-103235010D01*
X119462774Y-103083302D01*
X119576278Y-102709127D01*
X119605000Y-102417509D01*
X119605000Y-101622490D01*
X119576278Y-101330872D01*
X119462774Y-100956698D01*
X119278453Y-100611857D01*
X119030398Y-100309602D01*
X118728143Y-100061547D01*
X118383301Y-99877226D01*
X118009127Y-99763722D01*
X117620000Y-99725396D01*
X117230872Y-99763722D01*
X116856698Y-99877226D01*
X116511857Y-100061547D01*
X116209602Y-100309602D01*
X115961547Y-100611857D01*
X115889769Y-100746146D01*
X113894119Y-98750496D01*
X114183302Y-98662774D01*
X114381848Y-98556649D01*
X114831210Y-99006012D01*
G04 #@! TA.AperFunction,Conductor*
D19*
G36*
X114831210Y-99006012D02*
G01*
X114855009Y-99035011D01*
X114884007Y-99058809D01*
X114970733Y-99129984D01*
X115057526Y-99176376D01*
X115102763Y-99200556D01*
X115246024Y-99244013D01*
X115357677Y-99255010D01*
X115357687Y-99255010D01*
X115395010Y-99258686D01*
X115432333Y-99255010D01*
X133249030Y-99255010D01*
X133821311Y-99827291D01*
X133656698Y-99877226D01*
X133311857Y-100061547D01*
X133009602Y-100309602D01*
X132761547Y-100611857D01*
X132577226Y-100956699D01*
X132463722Y-101330873D01*
X132435000Y-101622491D01*
X132435000Y-102417510D01*
X132463722Y-102709128D01*
X132577226Y-103083302D01*
X132658315Y-103235010D01*
X131981720Y-103235010D01*
X132005300Y-103196959D01*
X132142082Y-102831814D01*
X132205000Y-102447000D01*
X132205000Y-102147000D01*
X130347000Y-102147000D01*
X130347000Y-102167000D01*
X130093000Y-102167000D01*
X130093000Y-102147000D01*
X128235000Y-102147000D01*
X128235000Y-102447000D01*
X128297918Y-102831814D01*
X128434700Y-103196959D01*
X128458280Y-103235010D01*
X127781685Y-103235010D01*
X127862774Y-103083302D01*
X127976278Y-102709127D01*
X128005000Y-102417509D01*
X128005000Y-101622490D01*
X128002096Y-101593000D01*
X128235000Y-101593000D01*
X128235000Y-101893000D01*
X130093000Y-101893000D01*
X130093000Y-99898171D01*
X130347000Y-99898171D01*
X130347000Y-101893000D01*
X132205000Y-101893000D01*
X132205000Y-101593000D01*
X132142082Y-101208186D01*
X132005300Y-100843041D01*
X131799910Y-100511597D01*
X131533805Y-100226591D01*
X131217211Y-99998976D01*
X130862295Y-99837499D01*
X130655323Y-99783323D01*
X130347000Y-99898171D01*
X130093000Y-99898171D01*
X129784677Y-99783323D01*
X129577705Y-99837499D01*
X129222789Y-99998976D01*
X128906195Y-100226591D01*
X128640090Y-100511597D01*
X128434700Y-100843041D01*
X128297918Y-101208186D01*
X128235000Y-101593000D01*
X128002096Y-101593000D01*
X127976278Y-101330872D01*
X127862774Y-100956698D01*
X127678453Y-100611857D01*
X127430398Y-100309602D01*
X127128143Y-100061547D01*
X126783301Y-99877226D01*
X126409127Y-99763722D01*
X126020000Y-99725396D01*
X125630872Y-99763722D01*
X125256698Y-99877226D01*
X124911857Y-100061547D01*
X124609602Y-100309602D01*
X124361547Y-100611857D01*
X124177226Y-100956699D01*
X124063722Y-101330873D01*
X124035000Y-101622491D01*
X124035000Y-102417510D01*
X124063722Y-102709128D01*
X124177226Y-103083302D01*
X124258315Y-103235010D01*
X123581685Y-103235010D01*
X123662774Y-103083302D01*
X123776278Y-102709127D01*
X123805000Y-102417509D01*
X123805000Y-101622490D01*
X123776278Y-101330872D01*
X123662774Y-100956698D01*
X123478453Y-100611857D01*
X123230398Y-100309602D01*
X122928143Y-100061547D01*
X122583301Y-99877226D01*
X122209127Y-99763722D01*
X121820000Y-99725396D01*
X121430872Y-99763722D01*
X121056698Y-99877226D01*
X120711857Y-100061547D01*
X120409602Y-100309602D01*
X120161547Y-100611857D01*
X119977226Y-100956699D01*
X119863722Y-101330873D01*
X119835000Y-101622491D01*
X119835000Y-102417510D01*
X119863722Y-102709128D01*
X119977226Y-103083302D01*
X120058315Y-103235010D01*
X119381685Y-103235010D01*
X119462774Y-103083302D01*
X119576278Y-102709127D01*
X119605000Y-102417509D01*
X119605000Y-101622490D01*
X119576278Y-101330872D01*
X119462774Y-100956698D01*
X119278453Y-100611857D01*
X119030398Y-100309602D01*
X118728143Y-100061547D01*
X118383301Y-99877226D01*
X118009127Y-99763722D01*
X117620000Y-99725396D01*
X117230872Y-99763722D01*
X116856698Y-99877226D01*
X116511857Y-100061547D01*
X116209602Y-100309602D01*
X115961547Y-100611857D01*
X115889769Y-100746146D01*
X113894119Y-98750496D01*
X114183302Y-98662774D01*
X114381848Y-98556649D01*
X114831210Y-99006012D01*
G37*
G04 #@! TD.AperFunction*
D18*
X219458000Y-89919801D02*
X219458001Y-98040199D01*
X217831918Y-99666282D01*
X217793961Y-99609476D01*
X217636524Y-99452039D01*
X217451398Y-99328341D01*
X217245696Y-99243137D01*
X217027325Y-99199700D01*
X216804675Y-99199700D01*
X216586304Y-99243137D01*
X216380602Y-99328341D01*
X216195476Y-99452039D01*
X216038039Y-99609476D01*
X215914341Y-99794602D01*
X215900000Y-99829224D01*
X215885659Y-99794602D01*
X215761961Y-99609476D01*
X215604524Y-99452039D01*
X215419398Y-99328341D01*
X215213696Y-99243137D01*
X214995325Y-99199700D01*
X214772675Y-99199700D01*
X214554304Y-99243137D01*
X214348602Y-99328341D01*
X214163476Y-99452039D01*
X214120000Y-99495515D01*
X214120000Y-95138675D01*
X214769700Y-95138675D01*
X214769700Y-95361325D01*
X214813137Y-95579696D01*
X214898341Y-95785398D01*
X215022039Y-95970524D01*
X215179476Y-96127961D01*
X215364602Y-96251659D01*
X215570304Y-96336863D01*
X215788675Y-96380300D01*
X216011325Y-96380300D01*
X216229696Y-96336863D01*
X216435398Y-96251659D01*
X216620524Y-96127961D01*
X216777961Y-95970524D01*
X216901659Y-95785398D01*
X216986863Y-95579696D01*
X217030300Y-95361325D01*
X217030300Y-95138675D01*
X216986863Y-94920304D01*
X216901659Y-94714602D01*
X216777961Y-94529476D01*
X216620524Y-94372039D01*
X216435398Y-94248341D01*
X216229696Y-94163137D01*
X216011325Y-94119700D01*
X215788675Y-94119700D01*
X215570304Y-94163137D01*
X215364602Y-94248341D01*
X215179476Y-94372039D01*
X215022039Y-94529476D01*
X214898341Y-94714602D01*
X214813137Y-94920304D01*
X214769700Y-95138675D01*
X214120000Y-95138675D01*
X214120000Y-89214801D01*
X215939803Y-87395000D01*
X216001939Y-87395000D01*
X216201898Y-87355226D01*
X216390256Y-87277205D01*
X216559774Y-87163937D01*
X216630956Y-87092755D01*
X219458000Y-89919801D01*
G04 #@! TA.AperFunction,Conductor*
D19*
G36*
X219458000Y-89919801D02*
G01*
X219458001Y-98040199D01*
X217831918Y-99666282D01*
X217793961Y-99609476D01*
X217636524Y-99452039D01*
X217451398Y-99328341D01*
X217245696Y-99243137D01*
X217027325Y-99199700D01*
X216804675Y-99199700D01*
X216586304Y-99243137D01*
X216380602Y-99328341D01*
X216195476Y-99452039D01*
X216038039Y-99609476D01*
X215914341Y-99794602D01*
X215900000Y-99829224D01*
X215885659Y-99794602D01*
X215761961Y-99609476D01*
X215604524Y-99452039D01*
X215419398Y-99328341D01*
X215213696Y-99243137D01*
X214995325Y-99199700D01*
X214772675Y-99199700D01*
X214554304Y-99243137D01*
X214348602Y-99328341D01*
X214163476Y-99452039D01*
X214120000Y-99495515D01*
X214120000Y-95138675D01*
X214769700Y-95138675D01*
X214769700Y-95361325D01*
X214813137Y-95579696D01*
X214898341Y-95785398D01*
X215022039Y-95970524D01*
X215179476Y-96127961D01*
X215364602Y-96251659D01*
X215570304Y-96336863D01*
X215788675Y-96380300D01*
X216011325Y-96380300D01*
X216229696Y-96336863D01*
X216435398Y-96251659D01*
X216620524Y-96127961D01*
X216777961Y-95970524D01*
X216901659Y-95785398D01*
X216986863Y-95579696D01*
X217030300Y-95361325D01*
X217030300Y-95138675D01*
X216986863Y-94920304D01*
X216901659Y-94714602D01*
X216777961Y-94529476D01*
X216620524Y-94372039D01*
X216435398Y-94248341D01*
X216229696Y-94163137D01*
X216011325Y-94119700D01*
X215788675Y-94119700D01*
X215570304Y-94163137D01*
X215364602Y-94248341D01*
X215179476Y-94372039D01*
X215022039Y-94529476D01*
X214898341Y-94714602D01*
X214813137Y-94920304D01*
X214769700Y-95138675D01*
X214120000Y-95138675D01*
X214120000Y-89214801D01*
X215939803Y-87395000D01*
X216001939Y-87395000D01*
X216201898Y-87355226D01*
X216390256Y-87277205D01*
X216559774Y-87163937D01*
X216630956Y-87092755D01*
X219458000Y-89919801D01*
G37*
G04 #@! TD.AperFunction*
M02*
